digraph {

subgraph cluster_metrics {  // perrepo
    label="Monitoring";     // perrepo
    color=grey;             // perrepo

    prometheus_operator [color=palegreen, style=filled, label="Prometheus Operator"]
    prometheus          [color=palegreen, style=filled, label="Prometheus"]
    kube_state_metrics  [color=palegreen, style=filled, label="Kube State Metrics Server"]
    metrics_server      [color=palegreen, style=filled, label="Metrics Server"]
    node_exporter       [color=palegreen, style=filled, label="Node Exporter"]
    alert_manager       [color=palegreen, style=filled, label="Alert Manager\ndeduplicates alerts"]
    grafana             [color=palegreen, style=filled, label="Grafana"]
}   // perrepo

    prometheus_operator -> apiserver  [label="looks up prometheus CRD"]
    prometheus_operator -> prometheus [label="creates, defined by CRD"]
    prometheus -> node_exporter       [label="collects datapoints from"]
    node_exporter -> kernel           [label="keeps track of current state"]
    prometheus -> kube_state_metrics  [label="collects datapoints from"]
    kube_state_metrics -> apiserver   [label="keeps track of current state"]
    apiserver -> metrics_server       [label="provides data for\nkubectl top & autoscaler"]
    metrics_server -> prometheus      [label="looks up current metrics"]
    prometheus -> alert_manager       [label="sends alerts to"]
    grafana -> prometheus             [label="provides a UI for Timeseries data"]
    prometheus -> storage_class       [label="stores files in"]
}
